,categorical_accuracy,mean_jaccard_index_loss,mean_jaccard_index_metric,mean_dice_coeff_metric,mean_recall,mean_precision,mean_specificity,normalized_mutual_info_score,adjusted_rand_score,jaccard_index_metric_MISSING,jaccard_index_metric_CLEAR,jaccard_index_metric_CLOUD SHADOW,jaccard_index_metric_SEMI TRANSPARENT CLOUD,jaccard_index_metric_CLOUD,jaccard_index_metric_UNDEFINED
0,0.75103759765625,0.451342582702637,0.548657417297363,0.695428788661957,0.765020430088043,0.674534678459168,0.90873646736145,0.424652723774379,0.453116559493101,1,0.679562151432037,0.35001078248024,0.447893291711807,0.717163562774658,1
6,0.690963745117188,0.610499382019043,0.389500558376312,0.502868592739105,0.576780676841736,0.549806714057922,0.865703225135803,0.356220647091444,0.326964951818162,1,0.143173307180405,0.0950472801923752,0.6032674908638,0.716514229774475,1
24,0.845046997070313,0.583708465099335,0.416291475296021,0.454318791627884,0.464306473731995,0.44908544421196,0.853878259658814,0.493414584887191,0.475718783780524,1,4.40528641343363E-10,1.15273780104674E-11,0.828062415122986,0.837103545665741,1
70,1,0,1,1,0.25,0.25,0.75,1,1,1,1,1,1,1,1
111,0.870468139648438,0.508174180984497,0.491825819015503,0.58333295583725,0.652792036533356,0.562636971473694,0.94159597158432,0.479752395225168,0.638736478130995,1,0.868903875350952,0.15559209883213,0.137799203395844,0.805008113384247,1
134,0.827407836914063,0.409824132919312,0.590175867080689,0.691759169101715,0.769497811794281,0.698716580867767,0.94007271528244,0.526596094950368,0.617214564654522,1,0.772686362266541,0.710469901561737,0.10782241076231,0.769724786281586,1
164,0.48834228515625,0.627914428710938,0.372085571289062,0.41405576467514,0.122085571289063,0.25,0.622085571289063,0,0,1,3.26328157204681E-12,1,0.48834228515625,3.46260381478558E-11,1
181,0.715377807617188,0.483699440956116,0.516300559043884,0.5942422747612,0.408858478069305,0.356073617935181,0.909591555595398,0.284283687319165,0.187571918263953,1,0.424338340759277,6.94444446391884E-10,0.640863835811615,1,1
215,0.95654296875,0.5108642578125,0.4891357421875,0.494447231292725,0.2391357421875,0.25,0.7391357421875,-1.87662683842002E-14,0,1,3.57142870832661E-09,1,0.95654296875,3.5460991781866E-11,1
339,0.370803833007812,0.655868470668793,0.344131529331207,0.386766791343689,0.094170942902565,0.249722540378571,0.836205720901489,0.0151847354110098,-0.0109648754219483,1,2.42671334416134E-12,9.77517095046565E-11,0.376526176929474,1,1
368,0.899932861328125,0.37497678399086,0.625023245811462,0.701995193958283,0.7458655834198,0.694356441497803,0.959534525871277,0.631334383754826,0.74097209809056,1,0.715549349784851,0.864153861999512,0.0671525225043297,0.853237152099609,1
406,0.90313720703125,0.365967035293579,0.634032964706421,0.682024002075195,0.457074820995331,0.416280031204224,0.951987206935883,0.47951382696397,0.617968269207733,1,3.50877188415311E-10,1,0.882668256759644,0.653463661670685,1
427,0.908462524414063,0.34306874871254,0.656931281089783,0.698115110397339,0.443929582834244,0.453503847122192,0.943920731544495,0.533614174220679,0.662759914645264,1,9.9999986957755E-08,1,0.872421443462372,0.755303502082825,1
448,0,0,1,1,0,0,1,1,1,1,1.52587892408157E-12,1,1,1,1.52587892408157E-12
479,0.850784301757813,0.403997749090195,0.596002221107483,0.678255498409271,0.681135892868042,0.706496715545654,0.943919003009796,0.598880884157884,0.661720699411621,1,0.80264812707901,0.740929245948792,0.0442795604467392,0.796151995658875,1
499,0.903076171875,0.422656178474426,0.577343821525574,0.678456425666809,0.681941032409668,0.683422744274139,0.946666240692139,0.555503314765189,0.751041215156402,1,0.919902920722961,0.603382766246796,0.107775211334229,0.678314507007599,1
531,0.90264892578125,0.0893227607011795,0.910677254199982,0.950922071933746,0.451267182826996,0.457991540431976,0.951267182826996,0.602719504658898,0.648499420926093,1,0.806613922119141,1,0.836095035076141,1,1
548,0.99993896484375,0.250015258789062,0.749984741210938,0.749992370605469,0.249984741210937,0.25,0.749984741210938,0,0,1,0.99993896484375,1,2.50000002921524E-08,1,1
568,0.437606811523438,0.890598297119141,0.109401702880859,0.152199760079384,0.25,0.109401702880859,0.75,-3.53747051292838E-16,0,1,0.437606811523438,8.76962218121502E-12,9.82318254516557E-11,4.09232283477001E-12,1
589,0.5689697265625,0.460021585226059,0.539978384971619,0.666149318218231,0.453043848276138,0.48851490020752,0.84556657075882,0.175593268324888,0.125395182771384,1,0.343667596578598,0.474249541759491,0.341996520757675,1,1
603,0.999755859375,0.25006103515625,0.74993896484375,0.749969482421875,0.24993896484375,0.25,0.74993896484375,-1.56137778816997E-12,0,1,1,1,0.999755859375,6.25000007303811E-09,1
617,0.99847412109375,0.250381469726562,0.749618530273438,0.749809145927429,0.25,0.249618530273437,0.75,0,0,1,1,1,0.99847412109375,9.99999971718069E-10,1
694,0.57025146484375,0.557602405548096,0.442397624254227,0.60243946313858,0.648354887962341,0.66319739818573,0.86047238111496,0.310366430420673,0.192190521957594,1,0.309326410293579,0.365112394094467,0.438219845294952,0.656931757926941,1
744,0.738479614257813,0.56111067533493,0.43888932466507,0.547227025032043,0.573210000991821,0.549064159393311,0.910812199115753,0.440455612000904,0.461455905633196,1,0.462892293930054,2.56937318643402E-11,0.520424544811249,0.772240459918976,1
795,0.962173461914063,0.426282584667206,0.573717415332794,0.63921982049942,0.617102086544037,0.688335657119751,0.98306941986084,0.786313207931545,0.889409510535188,1,0.363247871398926,0.948612689971924,0.0420860014855862,0.940923035144806,1
